<svg xmlns="http://www.w3.org/2000/svg" xmlns:xlink="http://www.w3.org/1999/xlink" width="24" height="24" viewBox="0 0 24 24">
  <defs>
    <clipPath id="clip-path">
      <rect id="Rectangle_15" data-name="Rectangle 15" width="24" height="24" transform="translate(999 249)" fill="#fff"/>
    </clipPath>
    <linearGradient id="linear-gradient" x1="0.039" x2="0.97" y2="1" gradientUnits="objectBoundingBox">
      <stop offset="0" stop-color="#f94757"/>
      <stop offset="1" stop-color="#f50973"/>
    </linearGradient>
    <filter id="Path_2659" x="-2.975" y="-1.985" width="29.95" height="19.406" filterUnits="userSpaceOnUse">
      <feOffset dy="3" input="SourceAlpha"/>
      <feGaussianBlur stdDeviation="3" result="blur"/>
      <feFlood flood-opacity="0.161"/>
      <feComposite operator="in" in2="blur"/>
      <feComposite in="SourceGraphic"/>
    </filter>
  </defs>
  <g id="Mask_Group_4" data-name="Mask Group 4" transform="translate(-999 -249)" clip-path="url(#clip-path)">
    <g id="Group_14" data-name="Group 14" transform="translate(-182 -18)">
      <path id="Path_2658" data-name="Path 2658" d="M21.414,0H2.586A2.488,2.488,0,0,0,0,2.37V19.63A2.488,2.488,0,0,0,2.586,22H21.414A2.488,2.488,0,0,0,24,19.63V2.37A2.488,2.488,0,0,0,21.414,0Zm0,20.711c-19.452.025.624.025,0,0Z" transform="translate(1181 268.002)" fill="url(#linear-gradient)"/>
      <g transform="matrix(1, 0, 0, 1, 1181, 267)" filter="url(#Path_2659)">
        <path id="Path_2659-2" data-name="Path 2659" d="M129.234,65.672h10.544a.7.7,0,1,0,0-1.406H129.234a.7.7,0,1,0,0,1.406Zm0,0" transform="translate(-122.51 -60.25)" fill="#fff"/>
      </g>
      <path id="Path_2660" data-name="Path 2660" d="M64.969,213.286h3.013a.7.7,0,0,0,.7-.7V209.57a.7.7,0,0,0-.7-.7H64.969a.7.7,0,0,0-.7.7v3.012a.7.7,0,0,0,.7.7Zm.7-3.012h1.606v1.606h-1.6Zm0,0" transform="translate(1119.747 67.925)" fill="#fff"/>
      <path id="Path_2661" data-name="Path 2661" d="M204.048,273.133H193.5a.7.7,0,0,0,0,1.406h10.544a.7.7,0,0,0,0-1.406Zm0,0" transform="translate(997.237 6.539)" fill="#fff"/>
      <path id="Path_2662" data-name="Path 2662" d="M81.538,337.4H64.969a.7.7,0,1,0,0,1.406H81.538a.7.7,0,0,0,0-1.406Zm0,0" transform="translate(1119.747 -54.985)" fill="#fff"/>
      <path id="Path_2663" data-name="Path 2663" d="M81.538,401.668H64.969a.7.7,0,1,0,0,1.406H81.538a.7.7,0,0,0,0-1.406Zm0,0" transform="translate(1119.747 -116.504)" fill="#fff"/>
      <path id="Path_2664" data-name="Path 2664" d="M204.048,208.867H193.5a.7.7,0,1,0,0,1.406h10.544a.7.7,0,1,0,0-1.406Zm0,0" transform="translate(997.237 68.059)" fill="#fff"/>
    </g>
  </g>
</svg>
