<svg xmlns="http://www.w3.org/2000/svg" xmlns:xlink="http://www.w3.org/1999/xlink" width="24" height="24" viewBox="0 0 24 24">
  <defs>
    <clipPath id="clip-path">
      <rect id="Rectangle_26" data-name="Rectangle 26" width="24" height="24" transform="translate(1112 189)" fill="#fff"/>
    </clipPath>
  </defs>
  <g id="Mask_Group_11" data-name="Mask Group 11" transform="translate(-1112 -189)" clip-path="url(#clip-path)">
    <g id="camera" transform="translate(1112.262 146.2)">
      <g id="Group_4" data-name="Group 4" transform="translate(0 44.8)">
        <g id="Group_3" data-name="Group 3" transform="translate(0)">
          <g id="Group_2" data-name="Group 2">
            <path id="Path_4" data-name="Path 4" d="M22.948,47.909a2.477,2.477,0,0,0-1.873-.843H17.33v-.048a2.239,2.239,0,0,0-.609-1.566,2,2,0,0,0-1.467-.651H8.484A2.013,2.013,0,0,0,7,45.451a2.282,2.282,0,0,0-.609,1.566v.048H2.663a2.477,2.477,0,0,0-1.873.843,2.964,2.964,0,0,0-.79,2v12a2.818,2.818,0,0,0,.79,2,2.6,2.6,0,0,0,1.873.843H21.075a2.477,2.477,0,0,0,1.873-.843,2.964,2.964,0,0,0,.79-2v-12A2.818,2.818,0,0,0,22.948,47.909Zm-.384,14h-.023a1.6,1.6,0,0,1-.429,1.108,1.4,1.4,0,0,1-1.038.458H2.663a1.4,1.4,0,0,1-1.038-.458A1.6,1.6,0,0,1,1.2,61.909v-12A1.6,1.6,0,0,1,1.625,48.8a1.4,1.4,0,0,1,1.038-.458H7.018a.628.628,0,0,0,.609-.651v-.7a.982.982,0,0,1,.248-.675.857.857,0,0,1,.632-.265h6.747a.857.857,0,0,1,.632.265.982.982,0,0,1,.248.675v.7a.628.628,0,0,0,.609.651H21.1a1.4,1.4,0,0,1,1.038.458,1.6,1.6,0,0,1,.429,1.108Z" transform="translate(0 -44.8)"/>
            <path id="Path_5" data-name="Path 5" d="M117.677,130.8a5.673,5.673,0,1,0,4.015,1.661A5.687,5.687,0,0,0,117.677,130.8Zm3.138,8.838a4.457,4.457,0,0,1-6.277,0,4.411,4.411,0,0,1-1.292-3.138,4.51,4.51,0,0,1,1.292-3.138,4.412,4.412,0,0,1,3.138-1.292,4.51,4.51,0,0,1,3.138,1.292,4.412,4.412,0,0,1,1.292,3.138A4.318,4.318,0,0,1,120.815,139.638Z" transform="translate(-105.808 -124.993)"/>
            <circle id="Ellipse_2" data-name="Ellipse 2" cx="1.131" cy="1.131" r="1.131" transform="translate(18.684 5.186)"/>
          </g>
        </g>
      </g>
    </g>
  </g>
</svg>
