<svg xmlns="http://www.w3.org/2000/svg" width="511.952" height="450.03" viewBox="0 0 511.952 450.03">
  <g id="icon-fire-dark" transform="translate(0 -30.961)" opacity="0.6">
    <path id="Path_8" data-name="Path 8" d="M65.983,269.117,29.332,232.464l1.038,37.659c1.278,46.386,21.478,81.3,61.753,106.739a201.629,201.629,0,0,0,147.01,26.52c9.08,7.674,18.666,15.584,28.671,23.835,48.538,40.031,53.636,45.194,63.726,53.774,10.9-9.075,14.91-14.149,63.772-52.25,52.354-40.821,116.65-92.149,116.65-158.509,0-56.523-41.059-104.242-98.212-104.242a89.694,89.694,0,0,0-26.6,3.914C371.933,111.3,333.208,76.4,333.525,76.713l-.094.094c-34.23-32.68-82.264-44.656-125.785-31.224l-23.783,7.34,38.706,38.7c5.336,5.336,7.254,12.5,5.13,19.16a15.433,15.433,0,0,1-12.485,10.737,21.308,21.308,0,0,1-21.385-10.407L184.261,93.59C154.706,39.448,87.894,15.342,32.967,41.654L.527,57.194,34.4,69.306c40.443,14.463,53.069,47.226,56.54,72.163a13.3,13.3,0,0,1-6.789,13.751L0,143.616,8.329,166.9c13.183,36.861,37.7,60.856,72.881,71.319C93.4,241.85,101,254.971,95.74,265.951c-5.4,11.281-20.572,12.351-29.757,3.166ZM413.741,195.99c38.887,0,68.212,31.917,68.212,74.242,0,53.59-62.8,101.87-105.1,134.851-13.793,10.755-29.119,22.7-45.287,36.3-15.9-13.579-31.043-26.071-44.676-37.315-65.968-54.407-105.786-87.247-105.786-133.841,0-42.325,29.325-74.242,68.211-74.242,41.5,0,60.266,39.313,66.406,56.216l3.589,9.878h24.432l3.59-9.877c6.142-16.9,24.907-56.217,66.407-56.217ZM89.763,209.47c-17.436-5.186-31.023-14.7-41.067-28.854H48.7l.033,0h-.005l41.714,4.335a43.347,43.347,0,0,0,30.2-47.62c-2.828-20.315-11.9-52.658-40.392-76.254,30.808.112,61.609,17.461,77.671,46.884l9.568,17.528a51.148,51.148,0,0,0,52.736,25.61,45.083,45.083,0,0,0,36.048-31.2c5.515-17.3.726-36.26-12.5-49.486l-.248-.248h.16c25.264,0,50.459,10.2,69.854,29.12A173.533,173.533,0,0,1,359.7,184.164c-12.366,9.457-21.569,21.277-28.17,32.113-13.97-22.934-39.576-50.285-82.212-50.285-57.2,0-98.211,47.768-98.211,104.242,0,44.188,26.023,76.609,58.3,106.9-35.246,2.082-71.587-6.891-101.26-25.632-20.695-13.071-34.35-28.781-41.59-48.211,21.793,6.388,45.847-2.675,56.242-24.375,13.042-27.226-2.588-60.388-33.033-69.444ZM48.68,180.614Zm.341.035-.089-.009Z" fill="#fff"/>
  </g>
</svg>
